1 10 20
100 200 125
201 210 89
900 1000 174
476778 812004 509
264186 878811 525
768119 810723 468
9635 672938 509
659792 721941 504
420394 385197 449
273118 474233 449
817650 803719 406
414075 148704 449
875359 648817 525
791740 246419 509
815985 975469 525
212912 260186 443
563421 439172 470
330571 626464 509
722417 654829 504
403735 463547 449
401255 520893 470
715835 703693 504
187375 129222 383
276105 713031 509
983010 570745 525
235273 233836 381
789045 520783 509
893722 239299 525
563832 408038 470
884890 525453 525
991195 551707 525
932192 262877 525
985192 296157 525
865373 586173 525
968477 173302 525
417669 618914 470
673356 201341 509
293863 681930 509
405099 43664 443
359239 943696 525
759613 408390 509
955325 694363 525
417619 183490 449
984859 585524 525
11463 742190 509
468365 800674 509
547458 82592 470
88389 652258 509
548831 542774 452
242576 568059 470
785275 346651 509
860139 702160 525
149046 442212 449
552974 345860 470
707832 75512 509
610302 300625 470
645589 67257 509
153796 131688 375
428918 782980 509
669671 511645 509
418568 134000 449
277023 132242 443
346761 63570 443
732342 955594 525
536983 623995 452
83213 76886 351
530249 277166 470
831881 386102 509
659242 838706 525
417952 510940 444
297627 73693 443
567881 772907 509
138067 885084 525
709279 504210 509
26872 610944 470
135698 785997 509
965068 364466 525
275435 238378 407
139846 904592 525
412696 834172 509
895544 353390 525
941133 359782 525
887905 348875 525
445332 68973 449
83219 571752 470
187792 945418 525
373619 499904 449
862887 498107 525
944678 457142 525
775919 167987 509
877560 105280 525
495705 564378 470
236015 36522 443
253465 727773 509
288860 455835 449
239033 557817 470
267620 837738 509
443998 562238 470
168139 965484 525
690875 477055 509
124859 80987 354
575805 823679 509
908885 496324 525
376660 921080 525
524166 202105 470
389782 240869 441
269979 230216 443
734801 226982 509
506310 187022 449
618603 548272 447
53835 954327 525
480599 97486 449
907833 944301 507
589550 930168 525
862285 853052 419
992331 325846 525
350936 658938 509
902798 591717 525
198945 509292 449
61746 718093 509
432784 187312 449
26029 888720 525
567249 114359 470
354548 879460 525
492166 264146 449
977853 53547 525
489593 880728 525
509099 759671 509
69066 39959 340
210524 695380 509
523123 379050 470
902596 371410 525
119580 109856 349
156940 846452 525
353382 969893 525
504677 789600 509
405319 322932 441
514364 8714 470
178301 149061 383
166053 585797 470
241056 964867 525
783167 208383 509
105331 861914 525
381705 256729 441
893380 215681 525
517840 280189 470
110496 93391 354
603168 816549 509
832878 190890 509
729608 203679 509
284006 393405 441
909024 999691 507
733116 677192 504
787968 770472 437
153224 140993 375
544914 688114 509
64319 148047 375
399805 297865 441
930737 273562 525
492734 969061 525
252855 177527 443
761526 300177 509
205346 579867 470
180647 575489 470
825315 415393 509
960602 347223 525
4355 589297 470
536468 871583 525
258311 623340 470
743688 736159 424
115554 836479 509
314239 597830 470
303422 111798 443
532991 365130 470
116681 172152 383
727599 517801 509
142777 905664 525
360356 286263 441
537738 855460 525
103379 218796 386
655958 377644 509
439982 624533 470
3308 791623 509
275900 750180 509
414330 190405 449
78581 14351 351
507631 803416 509
95115 686500 509
7920 689560 509
769801 262969 509
238484 508560 449
994329 249693 525
975018 849680 507
184915 456444 449
384936 202767 443
555541 238012 470
552115 931033 525
480686 290109 449
47185 944595 525
84344 70563 351
576073 52006 470
313204 893959 525
88136 133208 354
270787 422417 449
771158 419921 509
659203 121071 509
291854 487035 449
223411 3148 386
49788 500685 449
258365 490145 449
462632 324046 449
781974 746493 468
723337 172264 509
695176 867358 525
945716 601720 525
381870 24554 443
609560 390259 470
649188 257113 509
810371 113507 509
444854 147565 449
956674 422094 525
825249 390911 509
763097 685068 504
571583 812087 509
577702 868146 525
889094 678733 525
141398 172621 383
592769 352449 470
364449 260760 441
297906 638931 509
38049 278698 443
735375 956734 525
248546 263752 407
875894 359094 525
237984 255936 368
844574 229510 525
775558 336745 509
709486 116458 509
287838 603531 470
916192 683379 525
148590 867851 525
750114 262920 509
408391 414325 449
178598 107981 383
937934 252195 525
719344 19133 509
44892 360762 443
728928 80809 509
32926 249406 443
72275 822652 509
614577 957316 525
233653 232897 368
410591 58912 449
