1 10 20
100 200 125
201 210 89
900 1000 174
10 1000 179
1 1000000 525
50000 50000 128
1000000 1000000 153
1 1 1
52 4823 238
74 6987 262
3687 9875 262
1111 9999 262
15872 977 276
500 500 111
3809 5712 236
687592 44444 509
666666 42 509
867530 9 525
999897 969594 458
671428 4135 509
7169 9825 260
571023 9028 470
1 2 2
2 4 8
4 8 17
8 16 20
16 32 112
32 64 113
64 128 119
128 256 128
256 512 144
512 1024 179
1024 2048 182
2048 4096 238
4096 8192 262
8192 16384 276
16384 32768 308
32768 65536 340
65536 131072 354
376075 473719 449
974559 501741 525
600304 921264 525
528529 124396 470
746044 251487 509
622915 611311 447
600090 968524 525
279650 687607 509
617580 415705 470
406507 395950 405
547263 316277 470
533302 270725 470
291713 410322 449
860079 924319 476
41555 370724 443
24029 84362 351
215982 463343 449
125718 668637 509
766225 479957 509
720202 313434 509
954311 317312 525
674941 881540 525
806359 201577 509
23912 867582 525
57830 964724 525
206145 291356 443
557558 967832 525
366943 623841 470
778045 236054 509
721312 525954 509
291437 120936 443
331697 696716 509
813750 338033 509
35884 925334 525
694316 541219 509
675987 520816 509
533112 689835 509
225707 653094 509
945529 340772 525
890613 781203 525
362305 654840 509
764958 266957 509
151758 345233 443
168613 476623 449
282133 15617 443
358954 158486 443
203776 336383 443
915111 650757 525
624012 289786 470
725756 522168 509
372034 278198 441
176650 576666 470
606750 234428 470
830466 764001 468
207478 999016 525
618931 429572 470
305510 136674 443
326132 509766 449
564012 52476 470
931861 733142 525
994370 738161 525
205164 623110 470
809010 729888 468
790810 114426 509
53889 890977 525
915160 893620 476
538277 446686 470
752988 152603 509
885076 292781 525
443061 305041 449
361888 975620 525
717854 356697 509
521176 898739 525
121537 43777 354
577273 249347 470
830447 557420 509
878682 857930 432
161498 657853 509
795998 705074 468
956566 248282 525
838968 71893 525
164656 26485 383
840609 393911 525
108686 661156 509
601958 722949 509
120034 50406 354
477975 327591 449
451529 611418 470
3237 369980 443
638324 223123 509
805519 785212 468
766193 397846 509
736002 459298 509
428006 493241 444
356746 552651 470
501741 292418 449
669275 348275 509
267140 78030 443
242481 317321 407
793165 405178 509
703767 189386 509
974723 138368 525
894219 690918 525
74617 959309 525
856807 272318 525
135530 475247 449
225986 582803 470
166833 261590 443
517751 671808 509
582338 657959 509
281136 896709 525
967635 903374 507
65255 298856 443
889440 244162 525
680467 773382 504
124437 977260 525
287842 702985 509
381362 1943 443
438082 851861 525
317645 344602 384
299157 223184 443
410679 294062 449
961387 272012 525
33867 239017 443
889313 335213 525
908842 34517 525
301646 391004 441
957836 741048 525
503747 292900 449
463925 877592 525
971480 436357 525
361952 909144 525
290979 411117 449
429189 549551 470
895742 568243 525
122353 602094 470
910687 588060 525
816383 483118 509
312147 73674 443
240411 278100 407
43509 914513 525
977668 164912 525
688085 665248 398
998576 305617 525
793960 467741 509
330100 855998 525
970009 107103 525
129455 571138 470
427896 637672 509
626542 595684 509
731819 640739 504
627051 419065 509
135911 583016 470
526942 648760 509
38622 933362 525
79050 208835 383
764078 664996 504
473869 806298 509
92312 521397 470
649080 24442 509
703452 956323 525
126213 200187 383
975338 971853 383
87833 321529 443
379719 173095 443
854961 541569 525
59096 234161 443
401966 547191 470
34423 627254 509
54949 943302 525
893330 905171 401
59686 17656 340
739149 47275 509
276498 736641 509
642968 379944 509
861917 588991 525
834103 364738 509
430851 942266 525
388774 111014 443
857967 906000 445
232453 814428 509
573293 305831 470
858250 448751 525
934598 264458 525
281883 945641 525
17888 58180 340
403177 785511 509
957394 371846 525
124722 392330 443
787719 810390 468
290200 976202 525
593353 541748 452
748094 499764 509
654547 243796 509
620877 257946 470
193588 107041 383
165460 155347 383
271791 505159 449
447581 141467 449
365068 87074 443

