1 1 1
1 10000 262
999998 999999 259
1 999999 525
67810 590975 470
308456 504111 449
577064 817330 509
531136 703099 509
847317 978557 507
119629 339377 443
946737 962400 414
413697 788524 509
198392 691437 509
251133 358614 441
606130 854137 525
901557 944779 507
590925 923906 525
312671 502686 449
276561 567627 470
308764 509015 449
619638 817867 509
148558 213527 383
760841 804133 468
349992 562728 470
193512 441367 449
888933 967909 507
37542 993521 525
617688 956306 525
634359 890176 525
637226 766373 504
520022 607300 452
97180 833579 509
303942 948484 525
841286 952811 507
976838 985518 427
266114 505853 449
674404 961034 525
252923 426457 449
341402 498445 449
740440 921289 525
772952 905889 525
26902 698468 509
432661 861833 525
896376 913050 476
318716 939920 525
767365 946873 525
360336 849644 525
719037 730590 411
862840 919195 476
406817 438642 449
362852 536493 470
178556 532979 470
563786 919941 525
498502 966403 525
725090 911506 525
575078 736457 509
518912 530763 439
208685 463285 449
757531 878002 525
425880 900042 525
689943 749132 504
196870 886303 525
501049 754086 509
837141 938171 525
82801 93358 333
944202 989705 458
746818 908604 525
229108 281298 443
867131 994144 507
86535 847134 525
24830 786430 509
567688 791866 509
954377 989613 458
899104 943894 507
761514 938819 525
17490 294588 443
568139 811630 509
610781 854435 525
278019 441963 449
982413 990206 427
782035 889982 525
507389 573710 470
190390 259007 443
950659 974000 458
696021 865863 525
199797 912540 525
812563 846222 525
523591 943826 525
968933 969989 352
590277 832891 509
240301 332521 407
239098 733097 509
223215 665320 509
190731 671913 509
67259 792977 509
769173 885823 525
370314 657608 509
146652 983961 525
782722 973285 525
959610 983334 458
639633 884114 525
343935 349785 441
125005 196409 383
617076 902753 525
794754 931999 525
351492 406307 436
191037 916894 525
141492 201638 383
273009 617276 470
404111 716953 509
607367 861579 525
591689 673860 509
914597 996693 507
782284 965132 525
948149 955963 414
788703 791054 406
754718 983216 525
671856 889060 525
15418 500815 449
358094 751691 509
409327 583538 470
905051 982581 507
342908 921712 525
60676 75696 335
712419 876157 525
261899 849131 525
590816 784756 509
719023 805459 468
573248 658770 509
124618 301823 443
40815 643895 509
916307 999047 507
349984 496457 449
762922 820649 468
794670 850197 525
206793 889911 525
627538 724174 504
583696 842423 525
560769 942803 525
756968 856821 525
62812 548271 470
822037 992065 525
163975 473844 449
205708 463228 449
580851 864877 525
399711 688427 509
375928 843999 525
461537 832168 509
372721 893472 525
430926 543666 470
474104 626062 470
525069 939923 525
167710 717708 509
660023 732016 504
536367 573458 452
896095 940693 507
63607 702889 509
214849 458690 449
888204 955866 507
212072 502845 449
421795 755832 509
123357 712823 509
113598 800117 509
526716 690622 509
160248 960615 525
881922 965020 507
789625 966534 525
502022 999985 525
2545 201223 383
93377 941161 525
391217 400716 405
804236 865622 525
969610 977217 458
987044 992660 396
719957 824365 468
216361 757882 509
629039 881860 525
399622 496128 449
508796 928407 525
385863 413130 449
600837 690284 509
808976 839203 525
751141 902792 525
99291 519901 470
72641 540196 470
836656 964231 525
254851 605485 470
392128 506595 449
968147 969271 352
304782 583811 470
520715 743920 509
353652 427217 449
772795 939419 525
499182 767724 509
946098 971744 458
742361 979917 525
208870 746019 509
442221 584281 470
869204 902216 445
979253 989225 427
203300 705477 509
209372 931175 525
997607 998972 440
993769 999812 440
488413 496311 426
162979 890972 525
836950 879432 525
309648 324029 384
202851 223331 386
113090 847290 525
637145 878329 525
748985 782645 468
758787 995972 525
760460 995142 525
859243 955814 507
72609 257978 443
630717 633134 385
556043 782848 509
546072 590990 452
747371 885782 525
176849 723634 509
770209 897796 525
105099 171536 383
359280 830924 509
524479 837253 509
269139 618683 470
291406 324168 384
168516 974003 525
703075 810925 504
279890 941531 525
437556 780965 509
448797 793108 509
964327 986376 458
670298 762303 504
160569 392371 443
228622 511859 449
700031 771732 504
803159 830892 450
54038 78073 351
425643 980480 525
724084 960995 525
285808 529108 470
317756 413074 449
581708 895334 525
613449 706983 509
828821 999668 525
291324 585935 470
581065 648522 509
52563 246656 443
123828 278063 443
391280 465148 449
822767 830119 419
22056 431880 449
153060 655134 509
