938721 425103 525
139363 768335 509
445598 770026 509
92055 795825 509
82361 603315 470
278003 102537 443
123614 957816 525
508846 888867 525
143750 176083 383
44547 17291 324
764224 29351 509
264142 163410 443
740384 628524 504
122130 202573 383
641325 154574 509
400601 977917 525
950417 648329 525
973198 838984 507
101006 893056 525
618429 107888 470
270170 450834 449
485902 982941 525
306713 884 443
927117 426416 525
863231 333437 525
535794 655731 509
806610 162269 509
239745 768671 509
767157 455529 509
117380 362456 443
527350 632232 509
501035 871393 525
435871 710636 509
597995 19893 470
484124 280083 449
131429 676513 509
453773 815014 509
624545 808566 509
466319 237363 449
254760 289056 407
423490 583967 470
876122 162313 525
463182 973540 525
19689 862273 525
58496 528365 470
416679 759264 509
803145 968294 525
332091 237239 407
415937 667248 509
942342 312368 525
257875 384244 441
915602 493659 525
515302 243391 470
620450 388147 470
57267 348794 443
892654 319008 525
952154 610203 525
528799 184397 470
818753 101482 509
547927 852309 525
257812 868180 525
746256 809697 468
422683 281235 449
394217 867337 525
615223 277261 470
714573 195939 509
53673 926240 525
375179 92620 443
602637 239690 470
4091 575110 470
406371 283608 441
383800 145073 443
752320 153280 509
494312 781835 509
73621 996166 525
587041 364372 470
388334 804072 509
241455 919527 525
760642 245804 509
933024 130232 525
186749 971122 525
190169 395567 443
590711 408132 470
81056 929663 525
414057 813699 509
358414 19974 443
898252 77414 525
327998 832092 509
98034 356778 443
91434 657004 509
940751 11318 525
409383 131515 443
279600 33003 443
513255 614203 452
551588 493362 470
462614 565238 470
8828 828613 509
234788 289919 407
917584 727929 525
480315 333458 449
216132 697896 509
465856 539862 470
409975 417468 449
141023 191770 383
876659 265105 525
376585 340340 441
20818 480461 449
184965 391609 443
734177 805117 468
892350 96464 525
908955 433337 525
443050 375676 449
460706 774351 509
354542 434430 449
551755 212501 470
312026 931748 525
604983 256667 470
953573 166771 525
157445 588310 470
694953 657145 442
26493 348597 443
71451 38942 340
577413 279775 470
481000 404552 449
460386 696423 509
498269 849237 525
3227 974152 525
66912 229176 386
436983 233196 449
222467 117982 386
175585 628534 509
77574 839437 525
94974 300315 443
390944 818559 509
203949 921781 525
661991 416945 509
490141 12741 449
34993 672429 509
255697 790775 509
176217 403661 443
565824 295371 470
470649 934226 525
575734 290280 470
450882 187388 449
846817 419736 525
692925 157409 509
647309 53420 509
76283 811763 509
678176 50221 509
290184 655794 509
743991 493201 509
145908 955708 525
451022 598214 470
468484 956907 525
13158 50960 324
852934 690871 525
24032 182524 383
121634 585165 470
221778 750964 509
783018 312412 509
564185 380034 470
940025 621853 525
13942 809972 509
544149 919457 525
175372 505958 449
530848 527381 377
215501 912175 525
21695 355274 443
242515 860250 525
355546 484842 449
554787 852749 525
444119 211695 449
118022 499588 449
983978 164953 525
982784 452112 525
646238 241014 509
169907 844653 525
614224 636150 509
974523 660101 525
710140 752550 424
164718 470279 449
699467 725465 504
459662 700359 509
921472 930077 476
233888 81539 443
207056 205449 373
388104 327137 441
405023 674979 509
718298 625163 509
380921 886315 525
268701 355832 441
419282 633663 509
261491 769287 509
58477 264180 443
465523 582966 470
762807 944095 525
405295 112506 443
694171 536360 509
654302 336735 509
804885 400061 509
302583 435197 449
80783 636997 509
421505 806879 509
157591 571323 470
12723 374693 443
963292 238396 525
567671 450222 470
575386 332322 470
747153 230138 509
5284 268632 443
48596 672349 509
299974 419215 449
128136 885803 525
779178 246533 509
256117 18877 443
464383 227566 449
818614 775016 468
762109 165185 509
213761 931196 525
486920 177994 449
235297 240835 368
897199 622647 525
313172 841291 525
814680 726325 468
263536 359475 441
770936 308945 509
242862 508333 449
83958 429328 449
50741 876918 525
505776 594742 470
593957 368272 470
624273 675584 509
63482 437355 449
308770 63175 443
765976 95030 509
696474 67706 509
231909 779137 509
300152 66396 443
932053 785417 525
790794 117383 509
923306 561709 525
457407 202729 449
18438 387541 443
538693 555911 452
50193 902010 525
458717 490546 444
239241 876460 525
960366 614468 525
790929 270606 509
270373 701420 509
524366 160628 470
608246 357780 470
869978 956442 507
280784 184191 443
653827 513757 509
613847 221254 470
965398 953410 414
804772 533270 509
437889 483807 444
779171 967727 525
27208 475849 449
369175 571432 470
428316 937999 525
964225 714613 525
485761 808669 509
755351 506282 509
167780 841257 525
57726 765301 509
87440 374826 443
210565 762157 509
716630 175580 509
652777 492241 509
465046 622256 470
711428 212597 509
961194 508782 525
474709 217101 449
33334 534353 470
