1 10 20
100 200 125
201 210 89
900 1000 174
1 1 1
1 2 2
999999 999999 259
32768 32768 16
1 999999 525
500001 999999 525
999999 500001 525
336593 80302 443
639691 668605 442
918413 916331 383
582579 938890 525
280301 920445 525
420904 425079 418
556742 544598 452
441926 6254 449
717647 74560 509
352192 583561 470
607901 633088 509
332519 862180 525
501196 818766 509
291778 978135 525
223316 260581 443
171040 181257 365
463338 642327 509
942938 984870 458
821849 566639 509
206592 458486 449
70962 73299 325
473431 848139 525
292616 682342 509
260149 317062 407
261515 176291 443
800733 550892 509
512715 125928 470
305505 173526 443
159864 842450 525
514687 640584 509
499393 772088 509
633969 74579 509
845841 654004 525
571614 153585 470
351164 298469 441
836616 707383 468
312225 505666 449
770281 150275 509
832025 902936 525
946261 936751 507
264208 411027 449
143507 132183 375
719106 249149 509
545194 796145 509
516651 446042 470
507433 844732 525
155791 630579 509
747923 69037 509
512071 977230 525
884281 356309 525
681741 102303 509
907079 562542 525
886178 845595 432
239563 113066 443
795096 49515 509
992180 513976 525
953449 276476 525
438979 383261 449
903601 705973 525
275269 857915 525
298491 668094 509
732558 552300 509
794833 454723 509
388275 871376 525
44871 836656 509
435530 275546 449
6499 439708 449
720849 427100 509
308843 315271 384
488946 557908 470
71908 381702 443
889986 104560 525
622300 17551 470
327850 176225 443
410641 207251 449
30581 64953 340
671063 349299 509
257248 474941 449
476260 673607 509
459756 773348 509
726864 465863 509
861302 73423 525
968226 579555 525
388294 906537 525
465180 22097 449
902430 610303 525
626529 444950 509
280810 268566 407
294414 253143 407
801551 146055 509
822418 990133 525
80931 470559 449
291163 280298 389
337640 923398 525
702470 259235 509
348174 271473 441
948450 233507 525
75977 377891 443
